<?xml version="1.0" encoding="UTF-8" standalone="no"?>
<!-- Created with Inkscape (http://www.inkscape.org/) -->
<svg
   xmlns:dc="http://purl.org/dc/elements/1.1/"
   xmlns:cc="http://creativecommons.org/ns#"
   xmlns:rdf="http://www.w3.org/1999/02/22-rdf-syntax-ns#"
   xmlns:svg="http://www.w3.org/2000/svg"
   xmlns="http://www.w3.org/2000/svg"
   xmlns:xlink="http://www.w3.org/1999/xlink"
   xmlns:sodipodi="http://sodipodi.sourceforge.net/DTD/sodipodi-0.dtd"
   xmlns:inkscape="http://www.inkscape.org/namespaces/inkscape"
   width="24"
   height="24"
   id="svg2"
   sodipodi:version="0.32"
   inkscape:version="0.46+devel r"
   sodipodi:docname="cabeca-noosfero-terra.svg"
   inkscape:output_extension="org.inkscape.output.svg.inkscape"
   version="1.0">
  <defs
     id="defs4">
    <inkscape:perspective
       sodipodi:type="inkscape:persp3d"
       inkscape:vp_x="0 : 372.04724 : 1"
       inkscape:vp_y="0 : 1000 : 0"
       inkscape:vp_z="1052.3622 : 372.04724 : 1"
       inkscape:persp3d-origin="526.18109 : 248.03149 : 1"
       id="perspective3144" />
    <inkscape:perspective
       id="perspective3156"
       inkscape:persp3d-origin="0.5 : 0.33333333 : 1"
       inkscape:vp_z="1 : 0.5 : 1"
       inkscape:vp_y="0 : 1000 : 0"
       inkscape:vp_x="0 : 0.5 : 1"
       sodipodi:type="inkscape:persp3d" />
    <clipPath
       clipPathUnits="userSpaceOnUse"
       id="clipPath3878-6">
      <path
         sodipodi:nodetypes="csssssssc"
         id="path3880-1"
         d="m 27.200893,15.993392 c 0,6.150858 -4.991999,11.142858 -11.142856,11.142858 -6.150858,0 -11.142858,-4.992 -11.142858,-11.142858 0,-2.185214 1.714285,-5.954659 1.714285,-7.7142849 0,-8.57142868 5.832926,-12.0000001 10.285715,-12.0000001 1.714286,0 2.493799,1.946371 1.714286,3.42857146 -0.661208,1.25725054 -3.428572,1.71428574 -1.714286,3.42857144 1.212183,1.2121831 6.215414,4.1736984 7.020858,4.9791428 2.016856,2.0168573 3.264856,4.8025713 3.264856,7.8779993 z"
         style="color:#000000;fill:#cc0000;fill-opacity:1;fill-rule:nonzero;stroke:none;stroke-width:1.71428561;marker:none;visibility:visible;display:inline;overflow:visible;enable-background:accumulate" />
    </clipPath>
    <filter
       inkscape:collect="always"
       id="filter3870-8"
       x="-0.29058462"
       width="1.5811692"
       y="-0.20441557"
       height="1.4088312">
      <feGaussianBlur
         inkscape:collect="always"
         stdDeviation="2.459375"
         id="feGaussianBlur3872-7" />
    </filter>
    <radialGradient
       inkscape:collect="always"
       xlink:href="#linearGradient3471-4-51"
       id="radialGradient3137"
       gradientUnits="userSpaceOnUse"
       gradientTransform="translate(2.0080471e-6,0)"
       cx="28.347824"
       cy="25.913044"
       fx="25.103651"
       fy="21.208994"
       r="28.622223" />
    <linearGradient
       id="linearGradient3471-4-51">
      <stop
         style="stop-color:#729fcf;stop-opacity:0;"
         offset="0"
         id="stop3473-7-1" />
      <stop
         style="stop-color:#204a87;stop-opacity:1"
         offset="1"
         id="stop3475-8-0" />
    </linearGradient>
    <mask
       maskUnits="userSpaceOnUse"
       id="mask3828-3">
      <rect
         y="1.6666656"
         x="1.6666653"
         height="60.666664"
         width="60.666664"
         id="rect3830-0"
         style="color:#000000;fill:url(#linearGradient3832-0);fill-opacity:1;fill-rule:nonzero;stroke:none;stroke-width:1;marker:none;visibility:visible;display:inline;overflow:visible;enable-background:accumulate" />
    </mask>
    <linearGradient
       inkscape:collect="always"
       xlink:href="#linearGradient3795-4"
       id="linearGradient3832-0"
       gradientUnits="userSpaceOnUse"
       gradientTransform="matrix(4.6666666,0,0,4.6666666,-10.000001,-28.666667)"
       x1="8.5"
       y1="8.5"
       x2="9.5"
       y2="12.5" />
    <linearGradient
       inkscape:collect="always"
       id="linearGradient3795-4">
      <stop
         style="stop-color:#000000;stop-opacity:1"
         offset="0"
         id="stop3797-5" />
      <stop
         style="stop-color:#ffffff;stop-opacity:1"
         offset="1"
         id="stop3799-4" />
    </linearGradient>
    <inkscape:perspective
       id="perspective3256"
       inkscape:persp3d-origin="0.5 : 0.33333333 : 1"
       inkscape:vp_z="1 : 0.5 : 1"
       inkscape:vp_y="0 : 1000 : 0"
       inkscape:vp_x="0 : 0.5 : 1"
       sodipodi:type="inkscape:persp3d" />
    <radialGradient
       r="28.622223"
       fy="21.208994"
       fx="25.103651"
       cy="25.913044"
       cx="28.347824"
       gradientTransform="translate(2.0080472e-6,0)"
       gradientUnits="userSpaceOnUse"
       id="radialGradient3909"
       xlink:href="#linearGradient3942"
       inkscape:collect="always" />
    <linearGradient
       id="linearGradient3942">
      <stop
         id="stop3944"
         offset="0"
         style="stop-color:#e9b96e;stop-opacity:0;" />
      <stop
         id="stop3946"
         offset="1"
         style="stop-color:#a40000;stop-opacity:1" />
    </linearGradient>
    <mask
       maskUnits="userSpaceOnUse"
       id="mask3951">
      <rect
         style="color:#000000;fill:url(#linearGradient3955);fill-opacity:1;fill-rule:nonzero;stroke:none;stroke-width:1;marker:none;visibility:visible;display:inline;overflow:visible;enable-background:accumulate"
         id="rect3953"
         width="60.666664"
         height="60.666664"
         x="1.6666656"
         y="1.6666654" />
    </mask>
    <linearGradient
       inkscape:collect="always"
       xlink:href="#linearGradient3795-2"
       id="linearGradient3955"
       gradientUnits="userSpaceOnUse"
       gradientTransform="matrix(4.6666665,0,0,4.6666665,-10.000001,-28.666667)"
       x1="9.500001"
       y1="8.5"
       x2="9.5"
       y2="12.5" />
    <linearGradient
       inkscape:collect="always"
       id="linearGradient3795-2">
      <stop
         style="stop-color:#000000;stop-opacity:1"
         offset="0"
         id="stop3797-1" />
      <stop
         style="stop-color:#ffffff;stop-opacity:1"
         offset="1"
         id="stop3799-3" />
    </linearGradient>
    <clipPath
       clipPathUnits="userSpaceOnUse"
       id="clipPath3756">
      <path
         style="color:#000000;fill:#73d216;stroke:none;stroke-width:1.71428561;marker:none;visibility:visible;display:inline;overflow:visible;enable-background:accumulate"
         d="m 27.142858,16 c 0,6.150857 -4.992001,11.142857 -11.142858,11.142857 -6.1508565,0 -11.1428565,-4.992 -11.1428565,-11.142857 0,-3.075429 1.248,-5.861143 3.264857,-7.8780005 0.1637133,-3.2648572 0.1637133,-11.8362858 1.877999,-11.8362858 3.4285715,0 7.7142855,0 11.1428575,0 1.142857,1.1428571 3.142857,2.2857143 4.285714,3.42857144 0,3.42857146 -2.057143,6.85714286 -1.200001,8.39535446 C 25.319751,10.06785 27.142857,12.174989 27.142858,16 z"
         id="path3758"
         sodipodi:nodetypes="cssccccsc" />
    </clipPath>
    <clipPath
       clipPathUnits="userSpaceOnUse"
       id="clipPath3274">
      <path
         style="color:#000000;fill:#73d216;stroke:none;stroke-width:1.71428561;marker:none;visibility:visible;display:inline;overflow:visible;enable-background:accumulate"
         d="m 27.142858,16 c 0,6.150857 -4.992001,11.142857 -11.142858,11.142857 -6.1508565,0 -11.1428565,-4.992 -11.1428565,-11.142857 0,-3.075429 1.248,-5.861143 3.264857,-7.8780005 0.1637133,-3.2648572 0.1637133,-11.8362858 1.877999,-11.8362858 3.4285715,0 7.7142855,0 11.1428575,0 1.142857,1.1428571 3.142857,2.2857143 4.285714,3.42857144 0,3.42857146 -2.057143,6.85714286 -1.200001,8.39535446 C 25.319751,10.06785 27.142857,12.174989 27.142858,16 z"
         id="path3276"
         sodipodi:nodetypes="cssccccsc" />
    </clipPath>
    <linearGradient
       inkscape:collect="always"
       xlink:href="#linearGradient3841"
       id="linearGradient3847"
       x1="20.5"
       y1="3.5"
       x2="23.5"
       y2="7.5"
       gradientUnits="userSpaceOnUse" />
    <linearGradient
       id="linearGradient3841">
      <stop
         style="stop-color:#fcaf3e;stop-opacity:1"
         offset="0"
         id="stop3843" />
      <stop
         style="stop-color:#a40000;stop-opacity:0.49166667;"
         offset="1"
         id="stop3845" />
    </linearGradient>
    <linearGradient
       id="linearGradient3619">
      <stop
         style="stop-color:#babdb6;stop-opacity:1;"
         offset="0"
         id="stop3621" />
      <stop
         id="stop3627"
         offset="0.80000001"
         style="stop-color:#babdb6;stop-opacity:1;" />
      <stop
         style="stop-color:#babdb6;stop-opacity:0;"
         offset="1"
         id="stop3623" />
    </linearGradient>
    <radialGradient
       inkscape:collect="always"
       xlink:href="#linearGradient3629"
       id="radialGradient2759-9"
       gradientUnits="userSpaceOnUse"
       gradientTransform="translate(2.0080471e-6,0)"
       cx="28.347824"
       cy="25.913044"
       fx="25.103651"
       fy="21.208994"
       r="28.622223" />
    <linearGradient
       id="linearGradient3629">
      <stop
         id="stop3631"
         offset="0"
         style="stop-color:#d3d7cf;stop-opacity:0;" />
      <stop
         id="stop3633"
         offset="1"
         style="stop-color:#3465a4;stop-opacity:1" />
    </linearGradient>
    <mask
       maskUnits="userSpaceOnUse"
       id="mask3828">
      <rect
         y="1.6666656"
         x="1.6666653"
         height="60.666664"
         width="60.666664"
         id="rect3830"
         style="color:#000000;fill:url(#linearGradient3832);fill-opacity:1;fill-rule:nonzero;stroke:none;stroke-width:1;marker:none;visibility:visible;display:inline;overflow:visible;enable-background:accumulate" />
    </mask>
    <linearGradient
       inkscape:collect="always"
       xlink:href="#linearGradient3795"
       id="linearGradient3832"
       gradientUnits="userSpaceOnUse"
       gradientTransform="matrix(4.6666666,0,0,4.6666666,-10.000001,-28.666667)"
       x1="8.5"
       y1="8.5"
       x2="9.5"
       y2="12.5" />
    <linearGradient
       inkscape:collect="always"
       id="linearGradient3795">
      <stop
         style="stop-color:#000000;stop-opacity:1"
         offset="0"
         id="stop3797" />
      <stop
         style="stop-color:#ffffff;stop-opacity:1"
         offset="1"
         id="stop3799" />
    </linearGradient>
    <linearGradient
       inkscape:collect="always"
       xlink:href="#linearGradient3645"
       id="linearGradient3651"
       x1="15.142857"
       y1="-0.28571486"
       x2="23.714287"
       y2="16.857141"
       gradientUnits="userSpaceOnUse"
       gradientTransform="translate(-34.285714,0)" />
    <linearGradient
       id="linearGradient3645">
      <stop
         style="stop-color:#babdb6;stop-opacity:0;"
         offset="0"
         id="stop3647" />
      <stop
         id="stop3653"
         offset="0.30000001"
         style="stop-color:#3465a4;stop-opacity:1" />
      <stop
         style="stop-color:#888a85;stop-opacity:1"
         offset="1"
         id="stop3649" />
    </linearGradient>
    <clipPath
       clipPathUnits="userSpaceOnUse"
       id="clipPath3664">
      <path
         sodipodi:nodetypes="ccsscsssc"
         id="path3666"
         d="m -31.466475,4.008062 c 0.323619,-7.7223483 10.609333,-9.436634 17.466476,-6.0080626 -1.714286,0 -3.428572,3.4285715 -1.714286,5.1428572 1.212183,1.212183 4.501128,4.1736984 5.306572,4.9791428 2.0168565,2.0168576 3.2648565,4.8025716 3.2648565,7.8779996 0,6.150858 -4.9919995,11.142858 -11.1428565,11.142858 -6.150857,0 -11.142856,-4.991999 -11.142857,-11.142857 -1e-6,-3.085715 1.714285,-5.95466 1.714285,-7.7142862 0,-5.2123268 -2.535712,-5.3532282 -3.75219,-4.2776518 z"
         style="color:#000000;fill:#cc0000;fill-opacity:1;fill-rule:nonzero;stroke:none;stroke-width:1.71428561;marker:none;visibility:visible;display:inline;overflow:visible;enable-background:accumulate" />
    </clipPath>
    <filter
       inkscape:collect="always"
       id="filter3641"
       x="-0.29479191"
       width="1.5895838"
       y="-0.20238367"
       height="1.4047673">
      <feGaussianBlur
         inkscape:collect="always"
         stdDeviation="2.3058036"
         id="feGaussianBlur3643" />
    </filter>
    <linearGradient
       id="linearGradient6689">
      <stop
         style="stop-color:#ffffff;stop-opacity:1;"
         offset="0"
         id="stop6691" />
      <stop
         style="stop-color:#ffffff;stop-opacity:0;"
         offset="1"
         id="stop6693" />
    </linearGradient>
    <linearGradient
       id="linearGradient3699">
      <stop
         style="stop-color:#ffffff;stop-opacity:1;"
         offset="0"
         id="stop3701" />
      <stop
         style="stop-color:#ffffff;stop-opacity:0;"
         offset="1"
         id="stop3703" />
    </linearGradient>
    <radialGradient
       inkscape:collect="always"
       xlink:href="#linearGradient3942-5"
       id="radialGradient5330"
       gradientUnits="userSpaceOnUse"
       gradientTransform="translate(2.0080472e-6,0)"
       cx="28.347824"
       cy="25.913044"
       fx="25.103651"
       fy="21.208994"
       r="28.622223" />
    <linearGradient
       id="linearGradient3942-5">
      <stop
         id="stop3944-4"
         offset="0"
         style="stop-color:#f57900;stop-opacity:0;" />
      <stop
         id="stop3946-6"
         offset="1"
         style="stop-color:#cc0000;stop-opacity:1" />
    </linearGradient>
    <mask
       maskUnits="userSpaceOnUse"
       id="mask3951-6">
      <rect
         style="color:#000000;fill:url(#linearGradient3955-9);fill-opacity:1;fill-rule:nonzero;stroke:none;stroke-width:1;marker:none;visibility:visible;display:inline;overflow:visible;enable-background:accumulate"
         id="rect3953-3"
         width="60.666664"
         height="60.666664"
         x="1.6666656"
         y="1.6666654" />
    </mask>
    <linearGradient
       inkscape:collect="always"
       xlink:href="#linearGradient3795-2-9"
       id="linearGradient3955-9"
       gradientUnits="userSpaceOnUse"
       gradientTransform="matrix(4.6666665,0,0,4.6666665,-10.000001,-28.666667)"
       x1="9.500001"
       y1="8.5"
       x2="9.5"
       y2="12.5" />
    <linearGradient
       inkscape:collect="always"
       id="linearGradient3795-2-9">
      <stop
         style="stop-color:#000000;stop-opacity:1"
         offset="0"
         id="stop3797-1-5" />
      <stop
         style="stop-color:#ffffff;stop-opacity:1"
         offset="1"
         id="stop3799-3-2" />
    </linearGradient>
    <clipPath
       clipPathUnits="userSpaceOnUse"
       id="clipPath5338">
      <path
         sodipodi:nodetypes="cssscccsc"
         id="path5340"
         d="M 60,32.000001 C 60,47.456 47.456,60 32.000001,60 16.544001,60 4.0000001,47.456 4.0000001,32.000001 c 0,-7.728001 3.136,-14.728 8.2040009,-19.796001 5.068,-5.0679999 14.677224,-21.3206185 23.85026,-38.261091 1.412929,9.5281 2.825855,19.0562009 2.407277,27.04170678 0,0 2.889369,-4.45685098 7.475887,-12.92708778 C 50.245118,0.98060507 50.523074,8.3076923 52.67692,12.172942 55.418862,17.093573 60,22.388435 60,32.000001 z"
         style="opacity:0.6;color:#000000;fill:#73d216;fill-opacity:1;fill-rule:nonzero;stroke:none;stroke-width:4.30769205;marker:none;visibility:visible;display:inline;overflow:visible;enable-background:accumulate" />
    </clipPath>
    <filter
       inkscape:collect="always"
       id="filter3963-0"
       x="-0.28615385"
       width="1.5723077"
       y="-0.20666666"
       height="1.4133333">
      <feGaussianBlur
         inkscape:collect="always"
         stdDeviation="6.676923"
         id="feGaussianBlur3965-9" />
    </filter>
    <inkscape:perspective
       id="perspective3957"
       inkscape:persp3d-origin="0.5 : 0.33333333 : 1"
       inkscape:vp_z="1 : 0.5 : 1"
       inkscape:vp_y="0 : 1000 : 0"
       inkscape:vp_x="0 : 0.5 : 1"
       sodipodi:type="inkscape:persp3d" />
    <radialGradient
       r="28.622223"
       fy="21.208994"
       fx="25.103651"
       cy="25.913044"
       cx="28.347824"
       gradientTransform="translate(2.0080471e-6,0)"
       gradientUnits="userSpaceOnUse"
       id="radialGradient3909-1"
       xlink:href="#linearGradient3942-2"
       inkscape:collect="always" />
    <linearGradient
       id="linearGradient3942-2">
      <stop
         id="stop3944-9"
         offset="0"
         style="stop-color:#e9b96e;stop-opacity:0;" />
      <stop
         id="stop3946-3"
         offset="1"
         style="stop-color:#a40000;stop-opacity:1" />
    </linearGradient>
    <mask
       maskUnits="userSpaceOnUse"
       id="mask3951-1">
      <rect
         style="color:#000000;fill:url(#linearGradient3955-4);fill-opacity:1;fill-rule:nonzero;stroke:none;stroke-width:1;marker:none;visibility:visible;display:inline;overflow:visible;enable-background:accumulate"
         id="rect3953-9"
         width="60.666664"
         height="60.666664"
         x="1.6666656"
         y="1.6666654" />
    </mask>
    <linearGradient
       inkscape:collect="always"
       xlink:href="#linearGradient3795-2-7"
       id="linearGradient3955-4"
       gradientUnits="userSpaceOnUse"
       gradientTransform="matrix(4.6666665,0,0,4.6666665,-10.000001,-28.666667)"
       x1="9.500001"
       y1="8.5"
       x2="9.5"
       y2="12.5" />
    <linearGradient
       inkscape:collect="always"
       id="linearGradient3795-2-7">
      <stop
         style="stop-color:#000000;stop-opacity:1"
         offset="0"
         id="stop3797-1-8" />
      <stop
         style="stop-color:#ffffff;stop-opacity:1"
         offset="1"
         id="stop3799-3-4" />
    </linearGradient>
    <clipPath
       clipPathUnits="userSpaceOnUse"
       id="clipPath3756-5">
      <path
         style="color:#000000;fill:#73d216;stroke:none;stroke-width:1.71428561;marker:none;visibility:visible;display:inline;overflow:visible;enable-background:accumulate"
         d="m 27.142858,16 c 0,6.150857 -4.992001,11.142857 -11.142858,11.142857 -6.1508565,0 -11.1428565,-4.992 -11.1428565,-11.142857 0,-3.075429 1.248,-5.861143 3.264857,-7.8780005 0.1637133,-3.2648572 0.1637133,-11.8362858 1.877999,-11.8362858 3.4285715,0 7.7142855,0 11.1428575,0 1.142857,1.1428571 3.142857,2.2857143 4.285714,3.42857144 0,3.42857146 -2.057143,6.85714286 -1.200001,8.39535446 C 25.319751,10.06785 27.142857,12.174989 27.142858,16 z"
         id="path3758-0"
         sodipodi:nodetypes="cssccccsc" />
    </clipPath>
    <filter
       inkscape:collect="always"
       id="filter3750-3"
       x="-0.28615385"
       width="1.5723077"
       y="-0.20666666"
       height="1.4133333">
      <feGaussianBlur
         inkscape:collect="always"
         stdDeviation="2.6571429"
         id="feGaussianBlur3752-6" />
    </filter>
    <clipPath
       clipPathUnits="userSpaceOnUse"
       id="clipPath3975">
      <path
         style="color:#000000;fill:#73d216;stroke:none;stroke-width:1.71428561;marker:none;visibility:visible;display:inline;overflow:visible;enable-background:accumulate"
         d="m 27.142858,16 c 0,6.150857 -4.992001,11.142857 -11.142858,11.142857 -6.1508565,0 -11.1428565,-4.992 -11.1428565,-11.142857 0,-3.075429 1.248,-5.861143 3.264857,-7.8780005 0.1637133,-3.2648572 0.1637133,-11.8362858 1.877999,-11.8362858 3.4285715,0 7.7142855,0 11.1428575,0 1.142857,1.1428571 3.142857,2.2857143 4.285714,3.42857144 0,3.42857146 -2.057143,6.85714286 -1.200001,8.39535446 C 25.319751,10.06785 27.142857,12.174989 27.142858,16 z"
         id="path3977"
         sodipodi:nodetypes="cssccccsc" />
    </clipPath>
    <filter
       inkscape:collect="always"
       id="filter3824-1"
       x="-0.17511202"
       width="1.350224"
       y="-0.091273881"
       height="1.1825478">
      <feGaussianBlur
         inkscape:collect="always"
         stdDeviation="0.29185336"
         id="feGaussianBlur3826-0" />
    </filter>
    <linearGradient
       inkscape:collect="always"
       xlink:href="#linearGradient3841-3"
       id="linearGradient3847-6"
       x1="20.5"
       y1="3.5"
       x2="23.5"
       y2="7.5"
       gradientUnits="userSpaceOnUse" />
    <linearGradient
       id="linearGradient3841-3">
      <stop
         style="stop-color:#fcaf3e;stop-opacity:1"
         offset="0"
         id="stop3843-2" />
      <stop
         style="stop-color:#a40000;stop-opacity:0.49166667;"
         offset="1"
         id="stop3845-0" />
    </linearGradient>
    <filter
       inkscape:collect="always"
       id="filter3849-6">
      <feGaussianBlur
         inkscape:collect="always"
         stdDeviation="0.1875"
         id="feGaussianBlur3851-1" />
    </filter>
    <radialGradient
       inkscape:collect="always"
       xlink:href="#linearGradient3942-2"
       id="radialGradient3019"
       gradientUnits="userSpaceOnUse"
       gradientTransform="translate(2.0080471e-6,0)"
       cx="28.347824"
       cy="25.913044"
       fx="25.103651"
       fy="21.208994"
       r="28.622223" />
    <linearGradient
       inkscape:collect="always"
       xlink:href="#linearGradient3841-3"
       id="linearGradient3021"
       gradientUnits="userSpaceOnUse"
       x1="20.5"
       y1="3.5"
       x2="23.5"
       y2="7.5" />
  </defs>
  <sodipodi:namedview
     id="base"
     pagecolor="#ffffff"
     bordercolor="#666666"
     borderopacity="1.0"
     inkscape:pageopacity="0.0"
     inkscape:pageshadow="2"
     inkscape:zoom="14.53125"
     inkscape:cx="9.0761013"
     inkscape:cy="10.930099"
     inkscape:document-units="px"
     inkscape:current-layer="layer1"
     inkscape:window-width="1024"
     inkscape:window-height="705"
     inkscape:window-x="0"
     inkscape:window-y="0"
     showgrid="true">
    <inkscape:grid
       type="xygrid"
       id="grid3146"
       empspacing="5"
       visible="true"
       enabled="true"
       originx="0.5px"
       originy="0.5px" />
  </sodipodi:namedview>
  <metadata
     id="metadata7">
    <rdf:RDF>
      <cc:Work
         rdf:about="">
        <dc:format>image/svg+xml</dc:format>
        <dc:type
           rdf:resource="http://purl.org/dc/dcmitype/StillImage" />
        <dc:creator>
          <cc:Agent>
            <dc:title>Aurélio A. Heckert</dc:title>
          </cc:Agent>
        </dc:creator>
        <dc:title></dc:title>
      </cc:Work>
    </rdf:RDF>
  </metadata>
  <g
     inkscape:label="Camada 1"
     inkscape:groupmode="layer"
     id="layer1">
    <g
       id="g2782-5"
       transform="matrix(0.58333333,0,0,0.58333333,2.666666,5.6666669)">
      <path
         sodipodi:nodetypes="cssccccsc"
         id="path3746-5"
         d="m 27.142858,16 c 0,6.150857 -4.992001,11.142857 -11.142858,11.142857 -6.1508565,0 -11.1428565,-4.992 -11.1428565,-11.142857 0,-3.075429 1.248,-5.861143 3.264857,-7.8780005 0.163713,-3.2648572 0.163713,-11.8362858 1.877999,-11.8362858 3.4285715,0 7.7142855,0 11.1428575,0 1.142857,1.1428571 3.142857,2.2857143 4.285714,3.42857144 0,3.42857146 -2.057143,6.85714286 -1.200001,8.39535446 C 25.319751,10.06785 27.142857,12.174989 27.142858,16 z"
         style="color:#000000;fill:#c17d11;stroke:none;stroke-width:1.71428561;marker:none;visibility:visible;display:inline;overflow:visible;enable-background:accumulate" />
      <path
         mask="url(#mask3951-1)"
         transform="matrix(0.36734693,0,0,0.36734693,4.2448975,4.2448985)"
         d="M 60,32 C 60,47.456 47.456,60 32,60 16.544,60 4,47.456 4,32 4,16.544 16.544,4 32,4 47.456,4 60,16.544 60,32 z"
         sodipodi:ry="28"
         sodipodi:rx="28"
         sodipodi:cy="32"
         sodipodi:cx="32"
         id="path2786-1-0-47"
         style="color:#000000;fill:url(#radialGradient3019);fill-opacity:1;fill-rule:nonzero;stroke:none;stroke-width:4.66666651;marker:none;visibility:visible;display:inline;overflow:visible;enable-background:accumulate"
         sodipodi:type="arc" />
      <path
         clip-path="url(#clipPath3756-5)"
         sodipodi:nodetypes="cssccccsc"
         id="path3748-6"
         d="m 27.142858,16 c 0,6.150857 -4.992001,11.142857 -11.142858,11.142857 -6.1508565,0 -11.1428565,-4.992 -11.1428565,-11.142857 0,-3.075429 1.248,-5.861143 3.264857,-7.8780005 0.1637133,-3.2648572 0.1637133,-11.8362858 1.877999,-11.8362858 3.4285715,0 7.7142855,0 11.1428575,0 1.142857,1.1428571 3.142857,2.2857143 4.285714,3.42857144 0,3.42857146 -2.057143,6.85714286 -1.200001,8.39535446 C 25.319751,10.06785 27.142857,12.174989 27.142858,16 z"
         style="opacity:0.8;color:#000000;fill:none;stroke:#8f5902;stroke-width:8.5714283;stroke-linecap:round;stroke-linejoin:round;stroke-miterlimit:4;stroke-dasharray:none;marker:none;visibility:visible;display:inline;overflow:visible;filter:url(#filter3750-3);enable-background:accumulate" />
      <path
         style="opacity:0.4;color:#000000;fill:none;stroke:#a40000;stroke-width:8.5714283;stroke-linecap:round;stroke-linejoin:round;stroke-miterlimit:4;stroke-dasharray:none;marker:none;visibility:visible;display:inline;overflow:visible;filter:url(#filter3750-3);enable-background:accumulate"
         d="m 27.142858,16 c 0,6.150857 -4.992001,11.142857 -11.142858,11.142857 -6.1508565,0 -11.1428565,-4.992 -11.1428565,-11.142857 0,-3.075429 1.248,-5.861143 3.264857,-7.8780005 0.1637133,-3.2648572 0.1637133,-11.8362858 1.877999,-11.8362858 3.4285715,0 7.7142855,0 11.1428575,0 1.142857,1.1428571 3.142857,2.2857143 4.285714,3.42857144 0,3.42857146 -2.057143,6.85714286 -1.200001,8.39535446 C 25.319751,10.06785 27.142857,12.174989 27.142858,16 z"
         id="path3799-5"
         sodipodi:nodetypes="cssccccsc"
         clip-path="url(#clipPath3756-5)" />
      <path
         sodipodi:nodetypes="ccccc"
         transform="matrix(1.7142857,0,0,1.7142857,-23.428572,-6.2857149)"
         id="path3814-6"
         d="M 26.021385,1.8258656 C 25.5,3.5000001 24.5,6.5000001 24.5,9.5 c 2,-0.9999999 2,-0.9999999 3,-1.3258656 0,-1 1,-4.6741344 1,-4.6741344 L 26.021385,1.8258656 z"
         style="opacity:0.5;fill:#a40000;stroke:none;filter:url(#filter3824-1)" />
      <path
         sodipodi:nodetypes="cscccc"
         transform="matrix(1.7142857,0,0,1.7142857,-23.428572,-6.2857149)"
         id="path3830-9"
         d="m 18.5,8.2393075 c 0,-5 0.195519,-6.7393075 1.195519,-6.7393075 1,0 5.804481,0 5.804481,0 0,0 0,1 0,1.7393075 C 24.5,5.2393075 24.369654,9.5 24.369654,9.5 L 18.5,8.2393075 z"
         style="opacity:0.6;fill:url(#linearGradient3021);fill-opacity:1;stroke-width:1px;filter:url(#filter3849-6)" />
      <g
         style="opacity:0.5"
         id="g3810-3">
        <path
           sodipodi:type="inkscape:offset"
           inkscape:radius="-1.5"
           inkscape:original="M 10 -3.71875 C 8.2857143 -3.71875 8.2887133 4.8601428 8.125 8.125 C 6.108143 10.141857 4.84375 12.924571 4.84375 16 C 4.84375 22.150857 9.8491435 27.15625 16 27.15625 C 22.150857 27.15625 27.15625 22.150857 27.15625 16 C 27.156249 12.174989 25.309931 10.08321 24.21875 8.125 C 23.361608 6.5867884 25.4375 3.1473215 25.4375 -0.28125 C 24.294643 -1.4241071 22.299107 -2.5758929 21.15625 -3.71875 C 17.727678 -3.71875 13.428572 -3.71875 10 -3.71875 z "
           xlink:href="#path3991-2"
           style="color:#000000;fill:none;stroke:#fcaf3e;stroke-width:2.14285707;stroke-linecap:round;stroke-linejoin:miter;stroke-miterlimit:9;stroke-dasharray:none;marker:none;visibility:visible;display:inline;overflow:visible;enable-background:accumulate"
           id="path3997-7"
           inkscape:href="#path3991-2"
           d="m 10.5625,-2.21875 c -0.04332,0.1016821 -0.07448,0.134954 -0.125,0.3125 C 10.244083,-1.2264569 10.081651,-0.1066911 9.96875,1.125 9.742949,3.5883822 9.7101707,6.4889811 9.625,8.1875 a 1.50015,1.50015 0 0 1 -0.4375,1 C 7.4368034,10.938197 6.34375,13.335698 6.34375,16 c 0,5.337085 4.319165,9.65625 9.65625,9.65625 5.337085,0 9.65625,-4.319165 9.65625,-9.65625 -1e-6,-3.342315 -1.529703,-4.966332 -2.75,-7.15625 -0.4553,-0.8170732 -0.437204,-1.6277473 -0.34375,-2.375 0.09345,-0.7472527 0.290606,-1.4971346 0.5,-2.25 0.360562,-1.2963839 0.6488,-2.6207769 0.75,-3.875 -0.850794,-0.70883677 -2.051244,-1.5640455 -3.1875,-2.5625 -3.163656,0 -6.894876,0 -10.0625,0 z" />
        <path
           sodipodi:nodetypes="ccccc"
           d="m 18.571428,8.2857138 c 0,-3.4285713 1.714285,-9.4285714 1.714285,-9.4285714 M 9.9999995,8.2857136 17.714285,9.9999994 c 2.571428,0 2.857294,-1.1427625 4.285714,-1.7142858"
           style="color:#000000;fill:none;stroke:#fcaf3e;stroke-width:2.57142854;stroke-linecap:round;stroke-linejoin:miter;stroke-miterlimit:4;stroke-opacity:1;stroke-dasharray:none;stroke-dashoffset:0;marker:none;visibility:visible;display:inline;overflow:visible;enable-background:accumulate"
           id="path3804-4" />
      </g>
      <path
         sodipodi:nodetypes="ccccc"
         d="m 18.571428,8.2857138 c 0,-3.4285713 1.714285,-9.4285714 1.714285,-9.4285714 M 9.9999995,8.2857136 17.714285,9.9999994 c 2.571428,0 2.857294,-1.1427625 4.285714,-1.7142858"
         style="color:#000000;fill:none;stroke:#a40000;stroke-width:1.02857149;stroke-linecap:round;stroke-linejoin:miter;stroke-miterlimit:4;stroke-opacity:1;stroke-dasharray:none;stroke-dashoffset:0;marker:none;visibility:visible;display:inline;overflow:visible;enable-background:accumulate"
         id="path3736-5" />
      <path
         style="color:#000000;fill:none;stroke:#a40000;stroke-width:1.71428561;stroke-linecap:round;stroke-linejoin:round;stroke-miterlimit:4;marker:none;visibility:visible;display:inline;overflow:visible;enable-background:accumulate"
         d="m 27.142858,16 c 0,6.150857 -4.992001,11.142857 -11.142858,11.142857 -6.1508565,0 -11.1428565,-4.992 -11.1428565,-11.142857 0,-3.075429 1.248,-5.861143 3.264857,-7.8780005 0.1637133,-3.2648572 0.1637133,-11.8362858 1.877999,-11.8362858 3.4285715,0 7.7142855,0 11.1428575,0 1.142857,1.1428571 3.142857,2.2857143 4.285714,3.42857144 0,3.42857146 -2.057143,6.85714286 -1.200001,8.39535446 C 25.319751,10.06785 27.142857,12.174989 27.142858,16 z"
         id="path3991-2"
         sodipodi:nodetypes="cssccccsc" />
    </g>
  </g>
</svg>
